Suspect Analysis
…
The logistic regression model to predict the suspect’s sex based on
other factors.

mylogit <- glm(susp_sex ~ 
                borough + jurisdiction_code 
               + level + susp_age_group + susp_race + vic_age_group
               + vic_race + vic_sex, data = tidydata1, family = "binomial")

mylogit %>%
  broom::tidy() %>% 
  select(term, estimate, p.value)

## # A tibble: 28 × 3
##    term                 estimate   p.value
##    <chr>                   <dbl>     <dbl>
##  1 (Intercept)            1.59   1.09e-216
##  2 boroughBROOKLYN        0.0495 8.58e- 13
##  3 boroughMANHATTAN       0.0757 1.03e- 22
##  4 boroughQUEENS          0.0547 6.26e- 13
##  5 boroughSTATEN ISLAND  -0.111  2.56e- 19
##  6 jurisdiction_code2     0.686  4.52e-211
##  7 jurisdiction_code3    -0.148  2.35e- 84
##  8 levelMISDEMEANOR      -0.399  0        
##  9 levelVIOLATION        -0.761  0        
## 10 susp_age_group18-24    0.0613 2.94e-  7
## # … with 18 more rows
…
tidy_data2 = tidydata1 %>%
  filter(susp_race %in% c("BLACK","ASIAN / PACIFIC ISLANDER")) %>%
  mutate(susp_race = ifelse(susp_race == "BLACK",1,0))

mylogit_2 = glm(susp_race ~  borough + jurisdiction_code
+ level + susp_age_group
+ susp_sex + vic_age_group + vic_race + vic_sex, data = tidy_data2, family = "binomial")

# almost full model except victim information
mylogit_2 %>%
  broom::tidy() %>% 
  select(term, estimate, p.value)

## # A tibble: 24 × 3
##    term                 estimate   p.value
##    <chr>                   <dbl>     <dbl>
##  1 (Intercept)             3.02  0        
##  2 boroughBROOKLYN        -0.548 8.57e-119
##  3 boroughMANHATTAN       -0.364 3.48e- 47
##  4 boroughQUEENS          -1.76  0        
##  5 boroughSTATEN ISLAND   -0.556 2.87e- 42
##  6 jurisdiction_code2      1.77  2.72e-219
##  7 jurisdiction_code3      1.18  2.21e-229
##  8 levelMISDEMEANOR       -0.372 5.84e-122
##  9 levelVIOLATION         -0.463 1.60e-151
## 10 susp_age_group18-24    -0.642 1.83e- 73
## # … with 14 more rows
…
