hongru Tang
…
susp sex is a predictor, use logisitc regression

mylogit <- glm(susp_sex ~ precinct
 + borough + jurisdiction_code+atpt_cptd
+level+susp_age_group
+susp_race+vic_age_group+vic_race+vic_sex+covid_state, data = tidydata1, family = "binomial")
# almost full model except victor information
mylogit%>%
  broom::tidy() %>% 
  select(term, estimate, p.value)

## # A tibble: 33 × 3
##    term                 estimate   p.value
##    <chr>                   <dbl>     <dbl>
##  1 (Intercept)           1.53    8.02e-  3
##  2 precinct             -0.00347 4.29e- 22
##  3 boroughBRONX          0.468   4.13e-  1
##  4 boroughBROOKLYN       0.620   2.79e-  1
##  5 boroughMANHATTAN      0.459   4.23e-  1
##  6 boroughQUEENS         0.743   1.94e-  1
##  7 boroughSTATEN ISLAND  0.628   2.73e-  1
##  8 jurisdiction_code1    0.678   6.07e-206
##  9 jurisdiction_code2   -0.153   1.73e- 86
## 10 jurisdiction_code3   -0.0470  1.35e-  1
## # … with 23 more rows
…
# There are lot of race, we only focus on white and black
tidydata2=tidydata1%>%
  filter(susp_race %in% c("BLACK","WHITE"))%>%
  mutate(susp_race=ifelse(susp_race=="BLACK",1,0))

mylogit_2=glm(susp_race ~ precinct
 + borough + jurisdiction_code+atpt_cptd
+level+susp_age_group
+susp_sex+vic_age_group+vic_race+vic_sex, data = tidydata2, family = "binomial")
# almost full model except victor information
mylogit_2%>%
  broom::tidy() %>% 
  select(term, estimate, p.value)

## # A tibble: 28 × 3
##    term                 estimate  p.value
##    <chr>                   <dbl>    <dbl>
##  1 (Intercept)            3.05   4.29e- 3
##  2 precinct               0.0245 0       
##  3 boroughBRONX          -0.910  3.94e- 1
##  4 boroughBROOKLYN       -2.37   2.65e- 2
##  5 boroughMANHATTAN      -0.893  4.03e- 1
##  6 boroughQUEENS         -3.54   9.13e- 4
##  7 boroughSTATEN ISLAND  -4.42   3.55e- 5
##  8 jurisdiction_code1     1.46   0       
##  9 jurisdiction_code2     1.28   0       
## 10 jurisdiction_code3     0.629  1.47e-31
## # … with 18 more rows
…
